START transaction 1
END   transaction 1

START transaction 2
END   transaction 2

START transaction 3
END   transaction 3

START transaction 4
END   transaction 4

START transaction 4
END   transaction 4

START transaction 5
END   transaction 5

